4.390071632201743910e+02
2.895094656300506131e+02
1.360144553786573454e+02
9.800850485516696153e+01
6.322223392914388285e+01
5.233340857280419556e+01
3.945593319599612414e+01
3.320123124607345488e+01
3.120205631274827951e+01
2.947044739864687557e+01
